@startuml
participant "una comanda" as co
participant "una línia de comanda" as lc
participant "un producte" as pr
participant "un client" as cl

[o-> co: calculaPreu
activate co
co -> lc: getQuantitat
activate lc
co <-- lc
deactivate lc

co -> lc: getProducte
activate lc
co <-- lc: un producte
deactivate lc

co -> pr: getDetallsPreu
activate pr
co <-- pr
deactivate pr

co -> co: calculaPreuBase
activate co
deactivate co

co -> co: calculaDescomptes
activate co
co -> cl: getInfoDescomptes
activate cl
co <-- cl
deactivate cl
deactivate co

[<-- co: preu
deactivate co

@enduml

@startuml
participant "una comanda" as co
participant "una línia de comanda" as lc
participant "un producte" as pr
participant "un client" as cl

[o-> co: calculaPreu
activate co

co -> lc: calculaPreu
activate lc
lc -> pr: getPreu(quantitat: int)
activate pr
lc <-- pr: preu
deactivate pr
co <-- lc: preu
deactivate lc

co -> cl: getValorDescompte(una comanda)
activate cl
co <- cl: getValorBase
activate co
co --> cl
deactivate co
co <-- cl: valorAmbDescompte
deactivate cl

[<-- co: preu
deactivate co

@enduml
